%YAML 1.1
%TAG !u! tag:unity3d.com,2011:
--- !u!114 &11400000
MonoBehaviour:
  m_ObjectHideFlags: 0
  m_CorrespondingSourceObject: {fileID: 0}
  m_PrefabInstance: {fileID: 0}
  m_PrefabAsset: {fileID: 0}
  m_GameObject: {fileID: 0}
  m_Enabled: 1
  m_EditorHideFlags: 0
  m_Script: {fileID: 11500000, guid: 2c3f478ef69fbe04fa9ed3664a8a443e, type: 3}
  m_Name: DialogueTreeExample 1
  m_EditorClassIdentifier: 
  _serializedGraph: '{"type":"NodeCanvas.DialogueTrees.DialogueTree","nodes":[{"statement":{"_text":"\u8273\u9633\u5929\u90a3\u4e48\u6625\u5149\u597d\uff0c\n\u7ea2\u7684\u82b1\u662f\u7eff\u7684\u8349"},"_actorName":"\u6625\u9999","_actorParameterID":"ddbdb32f-7160-41ea-8262-0b7d175a366a","_position":{"x":184.9999,"y":210.0},"$type":"NodeCanvas.DialogueTrees.StatementNode","$id":"0"},{"statement":{"_text":"\u6211\u8e66\u8e66\u8df3\u8df3\u5411\u524d\u8dd1\n\u8e0f\u904d\u9752\u5c71\u4eba\u672a\u8001"},"_actorName":"\u67f3\u68a6\u6885","_actorParameterID":"d5445468-9573-49cc-9c03-f3d2c2fe6f16","_position":{"x":189.9999,"y":299.0},"$type":"NodeCanvas.DialogueTrees.StatementNode","$id":"1"}],"connections":[{"_sourceNode":{"$ref":"0"},"_targetNode":{"$ref":"1"},"$type":"NodeCanvas.DialogueTrees.DTConnection"}],"canvasGroups":[],"localBlackboard":{"_variables":{}},"derivedData":{"actorParameters":[{"_keyName":"\u6625\u9999","_id":"475b8278-51b4-46b2-868d-ce4016b401aa","_actorObject":1},{"_keyName":"\u67f3\u68a6\u6885","_id":"d5445468-9573-49cc-9c03-f3d2c2fe6f16","_actorObject":2},{"_keyName":"\u4e3d\u5a18","_id":"00f9eed4-a20e-485c-9bb2-69bf6da8dd8a","_actorObject":3}],"$type":"NodeCanvas.DialogueTrees.DialogueTree+DerivedSerializationData"}}'
  _objectReferences:
  - {fileID: 0}
  - {fileID: 0}
  - {fileID: 0}
  - {fileID: 0}
  _graphSource:
    _version: 3.21
    _category: 
    _comments: 
    _translation: {x: 100, y: -7}
    _zoomFactor: 1
  _haltSerialization: 0
  actorParameters:
  - _keyName: "\u6625\u9999"
    _id: 475b8278-51b4-46b2-868d-ce4016b401aa
    _actorObject: {fileID: 0}
  - _keyName: "\u67F3\u68A6\u6885"
    _id: d5445468-9573-49cc-9c03-f3d2c2fe6f16
    _actorObject: {fileID: 0}
  - _keyName: "\u4E3D\u5A18"
    _id: 00f9eed4-a20e-485c-9bb2-69bf6da8dd8a
    _actorObject: {fileID: 0}
