%YAML 1.1
%TAG !u! tag:unity3d.com,2011:
--- !u!1 &3432598939700396904
GameObject:
  m_ObjectHideFlags: 0
  m_CorrespondingSourceObject: {fileID: 0}
  m_PrefabInstance: {fileID: 0}
  m_PrefabAsset: {fileID: 0}
  serializedVersion: 6
  m_Component:
  - component: {fileID: 3432598939700396911}
  m_Layer: 0
  m_Name: xiaojie
  m_TagString: Untagged
  m_Icon: {fileID: 0}
  m_NavMeshLayer: 0
  m_StaticEditorFlags: 0
  m_IsActive: 1
--- !u!4 &3432598939700396911
Transform:
  m_ObjectHideFlags: 0
  m_CorrespondingSourceObject: {fileID: 0}
  m_PrefabInstance: {fileID: 0}
  m_PrefabAsset: {fileID: 0}
  m_GameObject: {fileID: 3432598939700396904}
  m_LocalRotation: {x: 0, y: 0, z: 0, w: 1}
  m_LocalPosition: {x: 6.5129986, y: -0.5317528, z: -0.39070606}
  m_LocalScale: {x: 1, y: 1, z: 1}
  m_Children:
  - {fileID: 2894042087451445606}
  m_Father: {fileID: 0}
  m_RootOrder: 0
  m_LocalEulerAnglesHint: {x: 0, y: 0, z: 0}
--- !u!1001 &3432598939632643725
PrefabInstance:
  m_ObjectHideFlags: 0
  serializedVersion: 2
  m_Modification:
    m_TransformParent: {fileID: 3432598939700396911}
    m_Modifications:
    - target: {fileID: -8679921383154817045, guid: 0e984de832cb21240a854c098ff2a38f, type: 3}
      propertyPath: m_RootOrder
      value: 0
      objectReference: {fileID: 0}
    - target: {fileID: -8679921383154817045, guid: 0e984de832cb21240a854c098ff2a38f, type: 3}
      propertyPath: m_LocalPosition.x
      value: -0.98792934
      objectReference: {fileID: 0}
    - target: {fileID: -8679921383154817045, guid: 0e984de832cb21240a854c098ff2a38f, type: 3}
      propertyPath: m_LocalPosition.y
      value: 1.0317528
      objectReference: {fileID: 0}
    - target: {fileID: -8679921383154817045, guid: 0e984de832cb21240a854c098ff2a38f, type: 3}
      propertyPath: m_LocalPosition.z
      value: 6.6913257
      objectReference: {fileID: 0}
    - target: {fileID: -8679921383154817045, guid: 0e984de832cb21240a854c098ff2a38f, type: 3}
      propertyPath: m_LocalRotation.w
      value: 1
      objectReference: {fileID: 0}
    - target: {fileID: -8679921383154817045, guid: 0e984de832cb21240a854c098ff2a38f, type: 3}
      propertyPath: m_LocalRotation.x
      value: -0
      objectReference: {fileID: 0}
    - target: {fileID: -8679921383154817045, guid: 0e984de832cb21240a854c098ff2a38f, type: 3}
      propertyPath: m_LocalRotation.y
      value: -0
      objectReference: {fileID: 0}
    - target: {fileID: -8679921383154817045, guid: 0e984de832cb21240a854c098ff2a38f, type: 3}
      propertyPath: m_LocalRotation.z
      value: -0
      objectReference: {fileID: 0}
    - target: {fileID: -8679921383154817045, guid: 0e984de832cb21240a854c098ff2a38f, type: 3}
      propertyPath: m_LocalEulerAnglesHint.x
      value: 0
      objectReference: {fileID: 0}
    - target: {fileID: -8679921383154817045, guid: 0e984de832cb21240a854c098ff2a38f, type: 3}
      propertyPath: m_LocalEulerAnglesHint.y
      value: 0
      objectReference: {fileID: 0}
    - target: {fileID: -8679921383154817045, guid: 0e984de832cb21240a854c098ff2a38f, type: 3}
      propertyPath: m_LocalEulerAnglesHint.z
      value: 0
      objectReference: {fileID: 0}
    - target: {fileID: 919132149155446097, guid: 0e984de832cb21240a854c098ff2a38f, type: 3}
      propertyPath: m_Name
      value: 01
      objectReference: {fileID: 0}
    m_RemovedComponents: []
  m_SourcePrefab: {fileID: 100100000, guid: 0e984de832cb21240a854c098ff2a38f, type: 3}
--- !u!4 &2894042087451445606 stripped
Transform:
  m_CorrespondingSourceObject: {fileID: -8679921383154817045, guid: 0e984de832cb21240a854c098ff2a38f, type: 3}
  m_PrefabInstance: {fileID: 3432598939632643725}
  m_PrefabAsset: {fileID: 0}
