%YAML 1.1
%TAG !u! tag:unity3d.com,2011:
--- !u!162 &1
EditorUserSettings:
  m_ObjectHideFlags: 0
  serializedVersion: 4
  m_ConfigSettings:
    RecentlyUsedScenePath-0:
      value: 224247031146467a1e1d0936036c6c1313191d396304232628252e30e7ee3177cee220eceb6e726e7717e1351027
      flags: 0
    RecentlyUsedScenePath-1:
      value: 224247031146467a1e1d0936036c6c1313191d396304232628252e30e7ee3177cee220eceb6a726c7717e1351027
      flags: 0
    RecentlyUsedScenePath-2:
      value: 224247031146467a1e1d0936036c6c1313191d396304232628252e30e7ee3177cee220eceb6b726d7717e1351027
      flags: 0
    RecentlyUsedScenePath-3:
      value: 224247031146467a1e1d0936036c6c1313191d396304232628252e30e7ee3177cdeb32a6cb3f29393550a26d4a2b0f36e613
      flags: 0
    RecentlyUsedScenePath-4:
      value: 224247031146467a1e1d0936036c6c1313191d396304232628252e30e7ee3177cdeb32a6cb3f29393550a26e4a2b0f36e613
      flags: 0
    RecentlyUsedScenePath-5:
      value: 224247031146467a1e1d0936036c6c1313191d396304232628252e30e7ee3177cdeb32a6cb3f29393551a26e4a2b0f36e613
      flags: 0
    RecentlyUsedScenePath-6:
      value: 224247031146467a1e1d0936036c6c1313191d396304232628252e30e7ee3177cdeb32a6cb3f29393556a26d4a2b0f36e613
      flags: 0
    RecentlyUsedScenePath-7:
      value: 224247031146467a1e1d0936036c6c1313191d396304232628252e30e7ee3177cdeb32a6cb3f29393556a26e4a2b0f36e613
      flags: 0
    RecentlyUsedScenePath-8:
      value: 224247031146467a1e1d0936036c6c1313191d396304232628252e30e7ee3177cdeb32a6d33f3e3f312eea2a01324f2afc031d12
      flags: 0
    RecentlyUsedScenePath-9:
      value: 224247031146467a1e1d0936036c6c1313191d39631d0f032e2c1336acf53a31f6fe
      flags: 0
    vcSharedLogLevel:
      value: 0d5e400f0650
      flags: 0
  m_VCAutomaticAdd: 1
  m_VCDebugCom: 0
  m_VCDebugCmd: 0
  m_VCDebugOut: 0
  m_SemanticMergeMode: 2
  m_VCShowFailedCheckout: 1
  m_VCOverwriteFailedCheckoutAssets: 1
  m_VCProjectOverlayIcons: 1
  m_VCHierarchyOverlayIcons: 1
  m_VCOtherOverlayIcons: 1
  m_VCAllowAsyncUpdate: 1
